{
	"cert": {
		"autodeploy": [
			{
				"name": "kab_bren_not",
				"start": 0.005990315999952145,
				"end": 36.077386117999936
			}
		]
	},
	"container-runtime": {
		"autodeploy": [
			{
				"name": "nuct_lel_swund",
				"start": 0.008955891999903542,
				"end": 26.300540482999963
			}
		]
	},
	"etcd": {
		"autodeploy": [
			{
				"name": "croz_smod_yem",
				"start": 36.07833149599992,
				"end": 50.156639270999904
			}
		]
	},
	"master-setup": {
		"autodeploy": [
			{
				"name": "string_vund_drug",
				"start": 36.0775969739999,
				"end": 69.47614300800001
			}
		]
	},
	"node-setup": {
		"autodeploy": [
			{
				"name": "muf_nab_tresk",
				"start": 36.078619452,
				"end": 67.52648733899991
			}
		]
	}
}